Q11:	|...+.... ........ ........ ........|[!!]
Q12:	|........ ........ ........ ........|[!!]
Q13:	|........ ........ ........ ........|[!!]
Q14:	|+-...... ........ ........ ........|[!!]
Q15:	|...-.... ........ ........ ........|[!!] bad([!-1,26,31!]) amb:30,31
Q16:	|+....... ........ ........ ........|[!!]

Total: 1
